…
*The core dplyr functions `select` and `filter` were used here. The
table includes only the columns `Rank`, `Name`, and `Hand`, and only
keeps the observations of left-handed players. The players ranked 10,
20, 26, and 41 play with their left hand.*

``` r
wta_stats %>%
  # arrange the data by a variable
  arrange(desc(RPW)) %>% 
  # keep RPW and remove the other variables besides name and rank
  select(Rank, Name, RPW)
```

    ## # A tibble: 50 x 3
    ##    Rank  Name                  RPW
    ##    <chr> <chr>               <dbl>
    ##  1 20    Marketa Vondrousova 0.478
    ##  2 3     Simona Halep        0.476
    ##  3 9     Bianca Andreescu    0.472
    ##  4 15    Victoria Azarenka   0.466
    ##  5 32    Amanda Anisimova    0.466
    ##  6 7     Serena Williams     0.462
    ##  7 38    Barbora Krejcikova  0.46 
    ##  8 26    Angelique Kerber    0.458
    ##  9 17    Elise Mertens       0.457
    ## 10 5     Elina Svitolina     0.45 
    ## # … with 40 more rows
…
``` r
wta_stats %>% 
  # create new variable for average of aces per match
  mutate(average_ace = Aces/M) %>% 
  # keep only the names and the new column
  select(Name, average_ace) %>%
  # arrange values in descending order
  arrange(desc(average_ace))
```

    ## # A tibble: 50 x 2
    ##    Name                  average_ace
    ##    <chr>                       <dbl>
    ##  1 Karolina Pliskova            7.28
    ##  2 Naomi Osaka                  6.88
    ##  3 Madison Keys                 6.88
    ##  4 Serena Williams              6.65
    ##  5 Ashleigh Barty               6.39
    ##  6 Ekaterina Alexandrova        5.86
    ##  7 Kiki Bertens                 5.64
    ##  8 Veronika Kudermetova         4.90
    ##  9 Jennifer Brady               4.81
    ## 10 Petra Kvitova                4.74
    ## # … with 40 more rows
…
